{
  "project_info": {
    "project_number": "257144308394",
    "project_id": "fir-messaging-fe678",
    "storage_bucket": "fir-messaging-fe678.appspot.com"
  },
  "client": [
    {
      "client_info": {
        "mobilesdk_app_id": "1:257144308394:android:359b95cd42f2ad4816c6d3",
        "android_client_info": {
          "package_name": "com.example.notification"
        }
      },
      "oauth_client": [
        {
          "client_id": "257144308394-jdi8gjk9v2taditp1uio3uj849qeianb.apps.googleusercontent.com",
          "client_type": 3
        }
      ],
      "api_key": [
        {
          "current_key": "AIzaSyAZJLSK_UZ7vy9t7X988FGUWnmkYId0dqo"
        }
      ],
      "services": {
        "appinvite_service": {
          "other_platform_oauth_client": [
            {
              "client_id": "257144308394-jdi8gjk9v2taditp1uio3uj849qeianb.apps.googleusercontent.com",
              "client_type": 3
            }
          ]
        }
      }
    }
  ],
  "configuration_version": "1"
}